{
    "fluentMethods": true,
    "relationships": [],
    "fields": [
        {
            "fieldName": "latitude",
            "fieldType": "Double",
            "fieldValidateRules": [
                "required"
            ]
        },
        {
            "fieldName": "longitude",
            "fieldType": "Double",
            "fieldValidateRules": [
                "required"
            ]
        },
        {
            "fieldName": "streetNumber",
            "fieldType": "String"
        },
        {
            "fieldName": "route",
            "fieldType": "String"
        },
        {
            "fieldName": "postalCode",
            "fieldType": "String"
        },
        {
            "fieldName": "country",
            "fieldType": "String"
        },
        {
            "fieldName": "formattedAddress",
            "fieldType": "String"
        }
    ],
    "changelogDate": "20180322162130",
    "entityTableName": "location",
    "dto": "mapstruct",
    "pagination": "pagination",
    "service": "serviceClass",
    "jpaMetamodelFiltering": false,
    "searchEngine": "elasticsearch",
    "microserviceName": "ichooseApi"
}