{
    "fluentMethods": true,
    "relationships": [
        {
            "relationshipType": "many-to-many",
            "otherEntityRelationshipName": "",
            "relationshipName": "subclassifications",
            "otherEntityName": "menuSubclassification",
            "otherEntityField": "id",
            "ownerSide": true
        }
    ],
    "fields": [
        {
            "fieldName": "name",
            "fieldType": "String",
            "fieldValidateRules": [
                "required"
            ]
        }
    ],
    "changelogDate": "20180419134010",
    "entityTableName": "menu_classification",
    "dto": "mapstruct",
    "pagination": "pagination",
    "service": "serviceClass",
    "jpaMetamodelFiltering": false,
    "searchEngine": "elasticsearch",
    "microserviceName": "ichooseApi"
}