{
    "fluentMethods": true,
    "relationships": [
        {
            "relationshipName": "restaurant",
            "otherEntityName": "restaurant",
            "relationshipType": "many-to-one",
            "otherEntityField": "id"
        }
    ],
    "fields": [
        {
            "fieldName": "type",
            "fieldType": "RoleType",
            "fieldValues": "ADMIN,WAITER",
            "fieldValidateRules": [
                "required"
            ]
        },
        {
            "fieldName": "login",
            "fieldType": "String",
            "fieldValidateRules": [
                "required"
            ]
        }
    ],
    "changelogDate": "20180322162128",
    "entityTableName": "role",
    "dto": "mapstruct",
    "pagination": "pagination",
    "service": "serviceClass",
    "jpaMetamodelFiltering": false,
    "searchEngine": "elasticsearch",
    "microserviceName": "ichooseApi"
}